{
  "development": {
    "host": "localhost",
    "username": "",
    "password": "",
    "my-var": "my-dev-value"
  },

  "production": {
    "host": "example.com",
    "username": "",
    "password": "",
    "my-var": "my-prod-value"
  }
}